%YAML 1.1
%TAG !u! tag:unity3d.com,2011:
--- !u!114 &11400000
MonoBehaviour:
  m_ObjectHideFlags: 0
  m_PrefabParentObject: {fileID: 0}
  m_PrefabInternal: {fileID: 0}
  m_GameObject: {fileID: 0}
  m_Enabled: 1
  m_EditorHideFlags: 0
  m_Script: {fileID: 11500000, guid: 56a97abc078c945fc95d75a6dd902d96, type: 3}
  m_Name: BrainCloudSettings
  m_EditorClassIdentifier: 
  m_serverURL: https://sharedprod.braincloudservers.com
  m_secretKey: 92a92749-4181-4437-a274-47dffe99b228
  m_gameId: 11605
  m_gameVersion: 1.0.0
  m_enableLogging: 0
